       idx 1        idx 2     EMD dist
           3            5   6.2489e+03
       idx 1        idx 2     EMD dist
           2            5   3.5913e+03
       idx 1        idx 2     EMD dist
           1            6   1.4173e+03
       idx 1        idx 2     EMD dist
           4            5   4.6695e+03
       idx 1        idx 2     EMD dist
           1            5   6.0867e+03
       idx 1        idx 2     EMD dist
           3            8   2.1835e+03
       idx 1        idx 2     EMD dist
           3            4   1.9747e+03
       idx 1        idx 2     EMD dist
           2            4   1.1620e+03
       idx 1        idx 2     EMD dist
           3            7   2.8833e+03
       idx 1        idx 2     EMD dist
           1            4   1.6612e+03
       idx 1        idx 2     EMD dist
           2            3   2.8187e+03
       idx 1        idx 2     EMD dist
           3            6   1.5878e+03
       idx 1        idx 2     EMD dist
           1            8   1.9757e+03
       idx 1        idx 2     EMD dist
           2            8   7.7855e+02
       idx 1        idx 2     EMD dist
           2            7   5.5805e+03
       idx 1        idx 2     EMD dist
           1            7   3.0462e+03
       idx 1        idx 2     EMD dist
           1            3   3.7810e+02
       idx 1        idx 2     EMD dist
           5            7   9.0585e+03
       idx 1        idx 2     EMD dist
           2            6   1.2951e+03
       idx 1        idx 2     EMD dist
           1            2   2.5899e+03
       idx 1        idx 2     EMD dist
           5            6   4.7572e+03
       idx 1        idx 2     EMD dist
           6            7   4.3676e+03
       idx 1        idx 2     EMD dist
           5            8   4.1681e+03
       idx 1        idx 2     EMD dist
           7            8   4.9532e+03
       idx 1        idx 2     EMD dist
           4            8   8.4834e+02
       idx 1        idx 2     EMD dist
           6            8   6.7907e+02
       idx 1        idx 2     EMD dist
           4            7   4.6075e+03
       idx 1        idx 2     EMD dist
           4            6   7.1768e+02
