       idx 1        idx 2     EMD dist
           3            5   1.0217e+05
       idx 1        idx 2     EMD dist
           4            5   9.0140e+04
       idx 1        idx 2     EMD dist
           2            5   5.8284e+04
       idx 1        idx 2     EMD dist
           1            6   3.2371e+04
       idx 1        idx 2     EMD dist
           1            5   1.2395e+05
       idx 1        idx 2     EMD dist
           2            4   3.4943e+04
       idx 1        idx 2     EMD dist
           3            8   3.1862e+04
       idx 1        idx 2     EMD dist
           2            3   4.6728e+04
       idx 1        idx 2     EMD dist
           3            7   9.8207e+04
       idx 1        idx 2     EMD dist
           3            4   1.7571e+04
       idx 1        idx 2     EMD dist
           1            4   3.6894e+04
       idx 1        idx 2     EMD dist
           1            8   5.1471e+04
       idx 1        idx 2     EMD dist
           1            7   7.7782e+04
       idx 1        idx 2     EMD dist
           1            3   2.5734e+04
       idx 1        idx 2     EMD dist
           2            8   2.0558e+04
       idx 1        idx 2     EMD dist
           2            7   1.4254e+05
       idx 1        idx 2     EMD dist
           1            2   6.8492e+04
       idx 1        idx 2     EMD dist
           5            7   1.9786e+05
       idx 1        idx 2     EMD dist
           2            6   3.7956e+04
       idx 1        idx 2     EMD dist
           3            6   1.2350e+04
       idx 1        idx 2     EMD dist
           5            6   9.3301e+04
       idx 1        idx 2     EMD dist
           6            7   1.0641e+05
       idx 1        idx 2     EMD dist
           7            8   1.2591e+05
       idx 1        idx 2     EMD dist
           4            8   2.2934e+04
       idx 1        idx 2     EMD dist
           5            8   7.4012e+04
       idx 1        idx 2     EMD dist
           4            7   1.1024e+05
       idx 1        idx 2     EMD dist
           6            8   2.2284e+04
       idx 1        idx 2     EMD dist
           4            6   1.3014e+04
