       idx 1        idx 2     EMD dist
           7            4   9.8407e+04
       idx 1        idx 2     EMD dist
           7            4   9.8407e+04
       idx 1        idx 2     EMD dist
           5            4   2.9298e+04
       idx 1        idx 2     EMD dist
           7            3   7.0674e+04
       idx 1        idx 2     EMD dist
           6            5   2.3546e+04
       idx 1        idx 2     EMD dist
           7            2   1.1454e+05
       idx 1        idx 2     EMD dist
           4            2   1.6295e+04
       idx 1        idx 2     EMD dist
           7            1   9.6618e+04
       idx 1        idx 2     EMD dist
           8            1   1.4329e+04
