       idx 1        idx 2     EMD dist
           5            3   1.3676e+06
       idx 1        idx 2     EMD dist
           6            5   1.0524e+06
       idx 1        idx 2     EMD dist
           3            2   4.1722e+05
       idx 1        idx 2     EMD dist
           5            2   9.8380e+05
       idx 1        idx 2     EMD dist
           4            3   2.6517e+05
       idx 1        idx 2     EMD dist
           5            1   1.2699e+06
       idx 1        idx 2     EMD dist
           7            2   6.8042e+05
       idx 1        idx 2     EMD dist
           7            4   5.2269e+05
       idx 1        idx 2     EMD dist
           4            2   1.8224e+05
       idx 1        idx 2     EMD dist
           3            1   1.0865e+05
       idx 1        idx 2     EMD dist
           7            1   3.6126e+05
       idx 1        idx 2     EMD dist
           7            6   5.9699e+05
       idx 1        idx 2     EMD dist
           7            5   1.6183e+06
       idx 1        idx 2     EMD dist
           6            4   1.3583e+05
       idx 1        idx 2     EMD dist
           8            1   4.4624e+05
       idx 1        idx 2     EMD dist
           8            2   7.5423e+05
       idx 1        idx 2     EMD dist
           7            3   2.7085e+05
       idx 1        idx 2     EMD dist
           6            2   1.2996e+05
       idx 1        idx 2     EMD dist
           8            5   1.7112e+06
       idx 1        idx 2     EMD dist
           8            3   3.5196e+05
       idx 1        idx 2     EMD dist
           6            3   3.3573e+05
       idx 1        idx 2     EMD dist
           8            6   6.7658e+05
       idx 1        idx 2     EMD dist
           8            4   5.9431e+05
       idx 1        idx 2     EMD dist
           2            1   3.2377e+05
       idx 1        idx 2     EMD dist
           6            1   2.4160e+05
       idx 1        idx 2     EMD dist
           4            1   1.7008e+05
       idx 1        idx 2     EMD dist
           5            4   1.1423e+06
       idx 1        idx 2     EMD dist
           8            7   1.2095e+05
