       idx 1        idx 2     EMD dist
           1            6   1.9689e+05
       idx 1        idx 2     EMD dist
           4            5   5.1170e+05
       idx 1        idx 2     EMD dist
           3            5   3.0042e+05
       idx 1        idx 2     EMD dist
           3            8   2.0933e+05
       idx 1        idx 2     EMD dist
           1            5   3.1214e+05
       idx 1        idx 2     EMD dist
           2            5   2.1726e+05
       idx 1        idx 2     EMD dist
           2            4   3.0142e+05
       idx 1        idx 2     EMD dist
           3            4   2.2361e+05
       idx 1        idx 2     EMD dist
           1            4   2.1620e+05
       idx 1        idx 2     EMD dist
           3            7   1.3604e+05
       idx 1        idx 2     EMD dist
           2            8   1.2830e+05
       idx 1        idx 2     EMD dist
           3            6   1.9127e+05
       idx 1        idx 2     EMD dist
           2            3   9.6439e+04
       idx 1        idx 2     EMD dist
           4            8   4.2236e+05
       idx 1        idx 2     EMD dist
           1            8   2.1507e+05
       idx 1        idx 2     EMD dist
           2            7   2.1998e+05
       idx 1        idx 2     EMD dist
           1            7   1.2863e+05
       idx 1        idx 2     EMD dist
           5            7   4.2046e+05
       idx 1        idx 2     EMD dist
           4            7   1.0984e+05
       idx 1        idx 2     EMD dist
           2            6   1.1355e+05
       idx 1        idx 2     EMD dist
           4            6   4.0550e+05
       idx 1        idx 2     EMD dist
           6            7   3.1319e+05
       idx 1        idx 2     EMD dist
           1            3   2.6658e+04
       idx 1        idx 2     EMD dist
           5            6   1.2355e+05
       idx 1        idx 2     EMD dist
           7            8   3.3110e+05
       idx 1        idx 2     EMD dist
           6            8   2.5550e+04
       idx 1        idx 2     EMD dist
           5            8   1.0655e+05
       idx 1        idx 2     EMD dist
           1            2   1.0461e+05
