       idx 1        idx 2     EMD dist
           3            5   3.6140e+05
       idx 1        idx 2     EMD dist
           1            6   1.1324e+05
       idx 1        idx 2     EMD dist
           1            5   3.5921e+05
       idx 1        idx 2     EMD dist
           4            5   2.2405e+05
       idx 1        idx 2     EMD dist
           2            5   2.4103e+05
       idx 1        idx 2     EMD dist
           1            4   1.4905e+05
       idx 1        idx 2     EMD dist
           3            4   1.5541e+05
       idx 1        idx 2     EMD dist
           2            8   1.4683e+05
       idx 1        idx 2     EMD dist
           2            7   2.0052e+05
       idx 1        idx 2     EMD dist
           3            8   3.1359e+04
       idx 1        idx 2     EMD dist
           2            4   5.1298e+04
       idx 1        idx 2     EMD dist
           1            3   1.4168e+04
       idx 1        idx 2     EMD dist
           2            3   1.3468e+05
       idx 1        idx 2     EMD dist
           1            2   1.2932e+05
       idx 1        idx 2     EMD dist
           3            7   7.9527e+04
       idx 1        idx 2     EMD dist
           4            8   1.6453e+05
       idx 1        idx 2     EMD dist
           3            6   1.1558e+05
       idx 1        idx 2     EMD dist
           5            7   4.2414e+05
       idx 1        idx 2     EMD dist
           2            6   3.5224e+04
       idx 1        idx 2     EMD dist
           5            8   3.7430e+05
       idx 1        idx 2     EMD dist
           5            6   2.5075e+05
       idx 1        idx 2     EMD dist
           4            7   2.1615e+05
       idx 1        idx 2     EMD dist
           6            7   1.8195e+05
       idx 1        idx 2     EMD dist
           6            8   1.2891e+05
       idx 1        idx 2     EMD dist
           1            8   2.6278e+04
       idx 1        idx 2     EMD dist
           7            8   5.9485e+04
       idx 1        idx 2     EMD dist
           1            7   7.5756e+04
       idx 1        idx 2     EMD dist
           4            6   5.4989e+04
