       idx 1        idx 2     EMD dist
           3            5   5.1135e+05
       idx 1        idx 2     EMD dist
           3            4   2.5556e+05
       idx 1        idx 2     EMD dist
           4            5   2.6216e+05
       idx 1        idx 2     EMD dist
           2            5   2.3491e+05
       idx 1        idx 2     EMD dist
           3            8   2.6957e+05
       idx 1        idx 2     EMD dist
           1            6   6.6618e+04
       idx 1        idx 2     EMD dist
           1            5   4.1747e+05
       idx 1        idx 2     EMD dist
           3            7   1.3808e+05
       idx 1        idx 2     EMD dist
           3            6   1.5901e+05
       idx 1        idx 2     EMD dist
           1            4   1.6159e+05
       idx 1        idx 2     EMD dist
           2            8   1.6017e+04
       idx 1        idx 2     EMD dist
           2            7   4.1640e+05
       idx 1        idx 2     EMD dist
           1            3   9.6265e+04
       idx 1        idx 2     EMD dist
           1            2   1.8583e+05
       idx 1        idx 2     EMD dist
           5            7   6.4732e+05
       idx 1        idx 2     EMD dist
           2            6   1.2248e+05
       idx 1        idx 2     EMD dist
           5            6   3.5393e+05
       idx 1        idx 2     EMD dist
           6            7   2.9521e+05
       idx 1        idx 2     EMD dist
           2            4   3.8576e+04
       idx 1        idx 2     EMD dist
           2            3   2.8031e+05
       idx 1        idx 2     EMD dist
           5            8   2.4414e+05
       idx 1        idx 2     EMD dist
           7            8   4.0573e+05
       idx 1        idx 2     EMD dist
           1            8   1.7520e+05
       idx 1        idx 2     EMD dist
           6            8   1.1191e+05
       idx 1        idx 2     EMD dist
           1            7   2.3231e+05
       idx 1        idx 2     EMD dist
           4            8   3.3184e+04
       idx 1        idx 2     EMD dist
           4            7   3.9060e+05
       idx 1        idx 2     EMD dist
           4            6   1.0222e+05
       idx 1        idx 2     EMD dist
           3            5   5.1135e+05
       idx 1        idx 2     EMD dist
           3            4   2.5556e+05
       idx 1        idx 2     EMD dist
           4            5   2.6216e+05
       idx 1        idx 2     EMD dist
           3            8   2.6957e+05
       idx 1        idx 2     EMD dist
           2            5   2.3491e+05
       idx 1        idx 2     EMD dist
           1            6   6.6618e+04
       idx 1        idx 2     EMD dist
           1            5   4.1747e+05
       idx 1        idx 2     EMD dist
           3            7   1.3808e+05
       idx 1        idx 2     EMD dist
           3            6   1.5901e+05
       idx 1        idx 2     EMD dist
           1            4   1.6159e+05
       idx 1        idx 2     EMD dist
           2            8   1.6017e+04
       idx 1        idx 2     EMD dist
           2            7   4.1640e+05
       idx 1        idx 2     EMD dist
           1            3   9.6265e+04
       idx 1        idx 2     EMD dist
           1            2   1.8583e+05
       idx 1        idx 2     EMD dist
           5            7   6.4732e+05
       idx 1        idx 2     EMD dist
           2            6   1.2248e+05
       idx 1        idx 2     EMD dist
           5            6   3.5393e+05
       idx 1        idx 2     EMD dist
           6            7   2.9521e+05
       idx 1        idx 2     EMD dist
           2            4   3.8576e+04
       idx 1        idx 2     EMD dist
           2            3   2.8031e+05
       idx 1        idx 2     EMD dist
           5            8   2.4414e+05
       idx 1        idx 2     EMD dist
           7            8   4.0573e+05
       idx 1        idx 2     EMD dist
           1            8   1.7520e+05
       idx 1        idx 2     EMD dist
           6            8   1.1191e+05
       idx 1        idx 2     EMD dist
           1            7   2.3231e+05
       idx 1        idx 2     EMD dist
           4            8   3.3184e+04
       idx 1        idx 2     EMD dist
           4            7   3.9060e+05
       idx 1        idx 2     EMD dist
           4            6   1.0222e+05
