       idx 1        idx 2     EMD dist
           4            5   4.8398e+03
       idx 1        idx 2     EMD dist
           2            5   2.8789e+03
       idx 1        idx 2     EMD dist
           2            4   2.0197e+03
       idx 1        idx 2     EMD dist
           3            5   2.1281e+03
       idx 1        idx 2     EMD dist
           3            4   2.7813e+03
       idx 1        idx 2     EMD dist
           1            6   3.4432e+02
       idx 1        idx 2     EMD dist
           3            8   6.9426e+02
       idx 1        idx 2     EMD dist
           1            5   2.1709e+03
       idx 1        idx 2     EMD dist
           1            4   2.7510e+03
       idx 1        idx 2     EMD dist
           2            8   1.4080e+03
       idx 1        idx 2     EMD dist
           2            3   8.4724e+02
       idx 1        idx 2     EMD dist
           3            7   1.2403e+03
       idx 1        idx 2     EMD dist
           1            8   7.1015e+02
       idx 1        idx 2     EMD dist
       idx 1        idx 2     EMD dist
           3            6   4.0256e+02
           1            7   1.2308e+03
       idx 1        idx 2     EMD dist
           1            3   1.3461e+02
       idx 1        idx 2     EMD dist
           5            7   3.2623e+03
       idx 1        idx 2     EMD dist
           4            8   3.3914e+03
       idx 1        idx 2     EMD dist
           2            7   6.4129e+02
       idx 1        idx 2     EMD dist
           2            6   1.0619e+03
       idx 1        idx 2     EMD dist
           4            7   1.6770e+03
       idx 1        idx 2     EMD dist
           1            2   7.8815e+02
       idx 1        idx 2     EMD dist
           4            6   3.0548e+03
       idx 1        idx 2     EMD dist
           5            6   1.9213e+03
       idx 1        idx 2     EMD dist
           6            7   1.5515e+03
       idx 1        idx 2     EMD dist
           7            8   1.8988e+03
       idx 1        idx 2     EMD dist
           5            8   1.6031e+03
       idx 1        idx 2     EMD dist
           6            8   4.1299e+02
